digraph Missing_IO_BOARD_A {
	node [shape=doublecircle] N114_0 N119_0 N125_0 init_0;
	node [shape=none label=""] i0 i1 i2 i3;
	node [shape=circle label="\N"];
	i0 -> N114_0;
	i1 -> N119_0;
	i2 -> init_0;
	N114_0 -> N114_0 [label="{IO-status}"];
	N114_0 -> N114_0 [label="{consequences, IO-status}"];
	N114_0 -> N114_0 [label="{consequences}"];
	N114_0 -> N114_0 [label="{}"];
	N114_0 -> N119_0 [label="{consequences}"];
	N119_0 -> N119_0 [label="{consequences}"];
	N119_0 -> N125_0 [label="{}"];
	N125_0 -> N119_0 [label="{consequences}"];
	init_0 -> N114_0 [label="{IO-status}"];
	init_0 -> N114_0 [label="{consequences, IO-status}"];
	init_0 -> N114_0 [label="{consequences}"];
	init_0 -> N114_0 [label="{}"];
	init_0 -> N119_0 [label="{consequences}"];
}
